Chapter 2 Analizando el ssdeep | Virus Total
…
#df_results <- df_results %>% select(-..JSON)
colnames(df_results) <- lapply(colnames(df_results), function(x) gsub('.result', '', x))

Si seleccionamos los AV Kasperky y ZoneAlarm se observa fácilmente que los resultados son idénticos y seguramente compartan el mismo motor.

df_results %>% select(Kaspersky, ZoneAlarm)

## # A tibble: 27 × 2
##    Kaspersky                                  ZoneAlarm                         
##    <chr>                                      <chr>                             
##  1 not-a-virus:HEUR:AdWare.AndroidOS.Ewind.kp <NA>                              
##  2 not-a-virus:UDS:AdWare.AndroidOS.Ewind.kp  not-a-virus:HEUR:AdWare.AndroidOS…
##  3 not-a-virus:HEUR:AdWare.AndroidOS.Ewind.kp <NA>                              
##  4 not-a-virus:HEUR:AdWare.AndroidOS.Ewind.kp not-a-virus:HEUR:AdWare.AndroidOS…
##  5 not-a-virus:UDS:AdWare.AndroidOS.Ewind.kp  <NA>                              
##  6 not-a-virus:HEUR:AdWare.AndroidOS.Ewind.kp <NA>                              
##  7 <NA>                                       <NA>                              
##  8 not-a-virus:HEUR:AdWare.AndroidOS.Ewind.kp not-a-virus:HEUR:AdWare.AndroidOS…
##  9 not-a-virus:HEUR:AdWare.AndroidOS.Ewind.kp not-a-virus:HEUR:AdWare.AndroidOS…
## 10 not-a-virus:HEUR:AdWare.AndroidOS.Ewind.kp <NA>                              
## # … with 17 more rows

McAfee y McAfee GW Edition, normal porque ambos son de McAfee

df_results %>% select(McAfee, `McAfee-GW-Edition`)

## # A tibble: 27 × 2
##    McAfee               `McAfee-GW-Edition`
##    <chr>                <chr>              
##  1 Artemis!919A1900C529 Artemis            
##  2 Artemis!919A1900C529 Artemis            
##  3 Artemis!919A1900C529 Artemis            
##  4 Artemis!919A1900C529 Artemis            
##  5 Artemis!919A1900C529 Artemis            
##  6 Artemis!919A1900C529 Artemis            
##  7 Artemis!919A1900C529 Artemis            
##  8 <NA>                 <NA>               
##  9 Artemis!919A1900C529 Artemis            
## 10 Artemis!919A1900C529 Artemis            
## # … with 17 more rows
